[
  {
    "studentID": "338e9621-c456-4a38-a2b8-fb209af89581",
    "voornaam": "Cedric",
    "achternaam": "Da Vinci",
    "lijstVakken": []
  },
  {
    "studentID": "e3ec974c-025d-4b53-87dd-41f6e86c6f24",
    "voornaam": "Bernd",
    "achternaam": "Einstein",
    "lijstVakken": [
      {
        "vakID": "99097c93-30f0-472b-9762-02fe052b4a4c",
        "naam": "Engels"
      }
    ]
  },
  {
    "studentID": "1dc050d4-fa93-4d40-8393-e2bde54ae826",
    "voornaam": "Illya",
    "achternaam": "Musk",
    "lijstVakken": [
      {
        "vakID": "99097c93-30f0-472b-9762-02fe052b4a4c",
        "naam": "Engels"
      },
      {
        "vakID": "b87b6eb0-47d6-41ce-9a5a-f3a62123982d",
        "naam": "IT"
      }
    ]
  },
  {
    "studentID": "902ed133-3d8b-46c5-9941-8ae65747193d",
    "voornaam": "Robin",
    "achternaam": "Edison",
    "lijstVakken": [
      {
        "vakID": "99097c93-30f0-472b-9762-02fe052b4a4c",
        "naam": "Engels"
      },
      {
        "vakID": "b87b6eb0-47d6-41ce-9a5a-f3a62123982d",
        "naam": "IT"
      },
      {
        "vakID": "2029fc45-a077-4814-8a58-62de90caddee",
        "naam": "Wiskunde"
      }
    ]
  }
]