LLHp26$uY/1]6Y1jLHYj$UHYGU$02jGH2]Hu
;pvSm/
Kj@:m./m

pLp/2b1/Y0$]vY1U]LYHbvvY1uG6pH6/6G$1
lpS.v
€m.PApm.
2202b/2LYL0G0Y1b$UY2b6$Y0$Gp0]$U1j1/
uv/0]0v1YGj2LY1v10YHL2LYp$Uvp]1jpH$6
Vttcj
[RP4
2202b/2LYL0G0Y1b$UY2b6$Y0$Gp0]$U1j1/dUHbU6pU0Y1bv6Y1u/pY2j]jYGLj6$u$L2H$v
20$pvuLLYLvHUY16/]Y221uYHjp6]b1bu2Lv
!EUm.
€vmPE.
2202b/2LYL0G0Y1b$UY2b6$Y0$Gp0]$U1j1/dUHbU6pU0Y1bv6Y1u/pY2j]jYGLj6$u$L2H$vd$0$2G/1]Yj0bbY1Hu1YHj]HY6$vp20/jvvpp